…
print(curve_feature_family_summary)
```

    # A tibble: 3,726 x 10
       experiment       value_metric feature family_id_group     n  mean    sd    se
       <chr>            <chr>        <chr>   <chr>           <int> <dbl> <dbl> <dbl>
     1 01.00-resazurin~ corrected_fc auc_ea~ 1                  20  2.54  2.23 0.499
     2 01.00-resazurin~ corrected_fc auc_ea~ 10                 10  3.42  3.62 1.14 
     3 01.00-resazurin~ corrected_fc auc_ea~ 2                  10  2.90  2.98 0.944
     4 01.00-resazurin~ corrected_fc auc_ea~ 3                  20  2.63  2.15 0.480
     5 01.00-resazurin~ corrected_fc auc_ea~ 5                  20  2.70  2.63 0.587
     6 01.00-resazurin~ corrected_fc auc_ea~ 6                   3  1.30  1.11 0.639
     7 01.00-resazurin~ corrected_fc auc_ea~ 7                  13  3.89  4.60 1.27 
     8 01.00-resazurin~ corrected_fc auc_ea~ 8                  10  4.28  4.20 1.33 
     9 01.00-resazurin~ corrected_fc auc_ea~ 9                  20  3.15  6.63 1.48 
    10 01.00-resazurin~ corrected_fc auc_la~ 1                  20 22.7  17.8  3.97 
    # i 3,716 more rows
    # i 2 more variables: median <dbl>, iqr <dbl>
…
``` r
curve_feature_pairwise_stats <- curve_feature_long %>%
  semi_join(top_curve_features, by = c("experiment", "value_metric", "feature")) %>%
  group_by(experiment, value_metric, feature) %>%
  group_modify(~ run_feature_pairwise(.x)) %>%
  ungroup()

print(curve_feature_pairwise_stats)
```

    # A tibble: 3,240 x 9
       experiment value_metric feature contrast estimate    SE    df t.ratio p.value
       <chr>      <chr>        <chr>   <chr>       <dbl> <dbl> <dbl>   <dbl>   <dbl>
     1 01.00-res~ corrected_fc depres~ 10-1      0.0916     NA    NA      NA  0.438 
     2 01.00-res~ corrected_fc depres~ 2-1      -0.0589     NA    NA      NA  0.900 
     3 01.00-res~ corrected_fc depres~ 3-1      -0.0510     NA    NA      NA  0.866 
     4 01.00-res~ corrected_fc depres~ 5-1      -0.0267     NA    NA      NA  0.997 
     5 01.00-res~ corrected_fc depres~ 6-1       0.0689     NA    NA      NA  0.984 
     6 01.00-res~ corrected_fc depres~ 7-1      -0.00931    NA    NA      NA  1.00  
     7 01.00-res~ corrected_fc depres~ 8-1      -0.0589     NA    NA      NA  0.900 
     8 01.00-res~ corrected_fc depres~ 9-1       0.00574    NA    NA      NA  1.00  
     9 01.00-res~ corrected_fc depres~ 2-10     -0.150      NA    NA      NA  0.0633
    10 01.00-res~ corrected_fc depres~ 3-10     -0.143      NA    NA      NA  0.0279
    # i 3,230 more rows
…
